[{
	"Выберите правильное написание слова РУБАШКА японской азбукой. Выберите только один вариант": {
		"a": "しょくりょうひん",
		"b": "ようふく",
		"c": "ポケット",
		"1": "シャツ"
	}
}, {
	"Выберите правильное написание слова УЖИН японской азбукой. Выберите только один вариант": {
		"e": "フルーツ",
		"d": "たまご",
		"2": "ばんごはん",
		"f": "やきそば"
	}
}, {
	"Выберите правильное написание слова РЫБАЛКА японской азбукой. Выберите только один вариант": {
		"3": "さかなつり",
		"h": "フェスティバル",
		"g": "ブログ",
		"q": "オーケー"
	}
}, {
	"Выберите правильное написание слова СЛАДКИЙ японской азбукой. Выберите только один вариант": {
		"w": "あたたかい",
		"r": "きつい",
		"4": "あまい",
		"t": "かっこいい"
	}
}]